Time;"No errors";"Less than 5";"Less than 10";"10 or more";"Pre-scanning errors"
1699301246;219;5601;347;201;675
1700314211;222;5702;353;205;669
1700470319;229;5741;351;205;774
1700919103;229;5808;414;221;678
1701524216;233;5878;414;220;676
1702131812;238;5947;416;221;677
1703943246;256;6085;427;228;673
1705153102;269;6033;414;217;643
1706362382;281;6134;411;220;654
1708176594;289;6277;414;218;668
1709407433;309;6351;413;216;676
1709991122;320;6379;418;217;682
1710620883;366;6398;419;217;684
1711294670;708;6110;412;212;688
1711969330;938;5796;400;194;837
1713011145;1114;5713;380;189;847
1713454441;1188;5666;391;190;848
1713781615;1223;5737;390;187;763
1715430652;1431;5686;386;180;778
1716641846;1644;5341;369;162;1031
1717324424;1786;5546;386;168;713
1717884765;1896;5503;367;162;704
1718456765;1994;5445;364;162;700
1719060292;2094;5389;362;162;684
1720269027;2296;5304;352;156;671
1721478603;2529;5205;344;149;644
1722083860;2606;5064;334;146;759
1722840579;2733;4776;309;130;987
1723294098;2872;4798;310;130;840
1723924716;3012;4809;316;131;727
1726818275;3555;4593;291;118;591
1728737254;3855;4256;266;105;778
1732620060;4481;4131;235;91;550
1737207414;5084;3808;214;83;517
