Time;"No errors";"Less than 5";"Less than 10";"10 or more";"Pre-scanning errors"
1699301246;10;130;21;27;10
1700314211;10;130;21;27;10
1700470319;11;128;22;27;10
1700919103;11;119;28;30;10
1701524216;11;120;29;28;10
1702131812;11;123;27;27;10
1703943246;11;120;28;29;10
1705153102;13;119;29;27;10
1706362382;13;120;30;26;10
1708176594;13;120;29;27;10
1709407433;13;121;28;27;10
1709991122;13;121;28;27;10
1710620883;16;120;27;26;10
1711294670;23;116;28;22;10
1711969330;28;111;29;24;7
1713011145;30;111;28;23;7
1713454441;32;108;29;23;7
1713781615;33;114;28;21;3
1715430652;38;110;27;20;4
1716641846;52;104;24;16;3
1717324424;65;94;21;16;3
1717884765;74;87;20;15;3
1718456765;79;84;19;14;3
1719060292;85;79;18;14;3
1720269027;100;71;17;10;1
1721478603;115;62;16;6;0
1722083860;121;59;13;6;0
1722840579;131;52;6;5;5
1723294098;138;46;7;3;5
1723924716;145;42;8;4;0
1726818275;161;30;6;2;0
1728737254;169;23;4;2;1
1732620060;178;16;4;1;0
1737207414;188;10;1;1;0
