time;"Make tagged release available";"Improve stability of the release";"Stable, congrats";"Fix info.yml/composer.json errors found";"Run Rector to fix all errors";"Run Rector to fix some errors";"Manually review and fix errors";"Resolve fatal error from PHPStan";"Fix invalid PHPStan results";"Fix malformed info.yml file";"Fix machine name issue";"Fix composer installation issue";"Fix PHP fatal error";"Fix PHP environment constraints if possible";"Check uncategorized error leading to missing results";"Check uncategorized error leading to empty results";"Project is abandoned or obsolete"
1699301246;5;0;5;93;0;0;85;7;0;0;1;0;0;0;0;2;2
1700314211;5;0;5;93;0;0;85;7;0;0;1;0;0;0;0;2;2
1700470319;5;0;6;89;7;17;64;7;0;0;1;0;0;0;0;2;2
1700919103;5;0;6;72;3;20;82;7;0;0;1;0;0;0;0;2;2
1701524216;5;0;6;74;1;19;83;7;0;0;1;0;0;0;0;2;2
1702131812;5;0;6;76;1;19;81;7;0;0;1;0;0;0;0;2;2
1703943246;5;0;6;75;1;20;81;7;0;0;1;0;0;0;0;2;2
1705153102;7;0;6;76;1;17;81;7;0;0;1;0;0;0;0;2;2
1706362382;6;0;7;75;1;17;83;7;0;0;1;0;0;0;0;2;1
1708176594;5;1;7;75;1;18;82;7;0;0;1;0;0;0;0;2;1
1709407433;4;1;8;77;1;18;80;7;0;0;1;0;0;0;0;2;1
1709991122;4;1;8;78;1;18;79;7;0;0;1;0;0;0;0;2;1
1710620883;7;1;8;76;1;16;80;7;0;0;1;0;0;0;0;2;1
1711294670;11;1;11;73;1;15;77;7;0;0;1;0;0;0;0;2;1
1711969330;14;1;13;74;2;14;70;4;0;0;1;4;0;0;0;2;1
1713011145;11;2;17;71;15;20;53;4;0;0;1;3;0;0;0;2;1
1713454441;11;3;18;70;9;19;58;4;0;0;1;4;0;0;0;2;1
1713781615;11;3;19;75;9;18;58;0;0;0;1;3;0;0;0;2;1
1715430652;16;2;20;77;10;16;51;0;0;0;1;3;1;0;0;2;1
1716641846;22;7;23;73;8;14;46;0;0;0;1;3;0;0;0;2;1
1717324424;22;8;35;60;7;15;48;0;0;0;1;1;0;0;0;2;1
1717884765;25;9;40;57;7;15;42;0;0;0;1;1;0;0;0;2;1
1718456765;26;8;45;55;8;15;38;0;0;0;1;1;0;0;0;2;1
1719060292;28;8;49;49;7;13;41;0;0;0;1;1;0;0;0;2;1
1720269027;32;11;57;46;7;12;33;0;0;0;0;0;0;0;0;1;1
1721478603;34;10;71;40;6;10;28;0;0;0;0;0;0;0;0;0;1
1722083860;32;14;75;38;6;7;27;0;0;0;0;0;0;0;0;0;1
1722840579;30;16;85;31;5;6;21;0;0;0;0;0;0;0;0;5;1
1723294098;24;15;99;29;4;5;18;0;0;0;0;0;0;0;0;5;1
1723924716;16;17;112;27;4;6;17;0;0;0;0;0;0;0;0;0;1
1726818275;5;20;136;22;4;3;9;0;0;0;0;0;0;0;0;0;1
1728737254;5;20;144;17;4;2;6;0;0;0;0;0;0;0;0;1;1
1732620060;5;22;151;12;3;3;3;0;0;0;0;0;0;0;0;0;1
1737207414;3;21;164;7;2;2;1;0;0;0;0;0;0;0;0;0;0
